Name,Date,Close,Volume,Totale_ricavi,Costo_venduto,Spese_generali_amministrative,Spese_gestione_operativa,Spese_interessi,Utile_ante_imposte,Utile_netto,PE
A2A,2017-02-01,1.311,196143420,5093,2968,0,1408,134,354,224,0.07
A2A,2018-02-01,1.456,211004282,5796,3681,0,1371,113,576,293,0.09
A2A,2019-02-01,1.558,140594422,6447,4332,0,1376,108,490,344,0.11
ACE,2017-02-01,12.0,2391870,2743,1766,0,549,120,416,262,1.23
ACE,2018-02-01,14.32,2621498,2724,1768.6,0,648,81,288,180,0.85
ACE,2019-02-01,13.9,2405803,2894,1919,0,628,89,409,271,1.27
ACO,2017-02-01,6.03,337430,22.2,1.2,17,30.5,0,-7,-5.5,-1.33
ACO,2018-02-01,3.37,244964,17.3,0.4,13.8,26.2,0.1,-11.2,-6.5,-1.59
ACO,2019-02-01,3.41,419696,5,0.6,4.7,8.6,0,-4.8,-5.8,-1.18
ACS,2017-02-01,1.55,470551,197,128.4,0.1,52.1,1.2,17.5,10.7,0.14
ACS,2018-02-01,2.36,658719,198.7,126,0,58,1,16,10,0.13
ACS,2019-02-01,1.83,220054,285.7,210,0.1,63,1,16.8,10.7,0.05
AEF,2017-02-01,1.33,6274186,280.7,92.7,77,178,2.3,8.3,3.6,0.04
AEF,2018-02-01,2.225,3741864,312.6,97.3,85.7,190,1.3,19,11.5,0.11
AEF,2019-02-01,2.87,4505227,346.5,112.1,95.3,205.4,0,28.8,16.7,0.17
AMP,2017-02-01,10.11,9440186,1133,741.8,0,257,19,107,63.6,0.29
AMP,2018-02-01,13.05,7330311,1266,825,0,290,19.3,130.3,100.6,0.46
AMP,2019-02-01,16.360001,9300820,1362,887.6,0,320,14.7,138.5,100.4,0.46
ASR,2017-02-01,0.44845,9496893,175,24.3,21.7,255.6,18,-36,-42,-0.1
ASR,2018-02-01,0.49272,15908775,250.8,27.5,23,268,22,-17.7,-25.5,-0.06
ASR,2019-02-01,0.54,17232157,232.7,28.1,28.5,318,22.3,-15.5,-24,-0.06
AST,2017-02-01,6.5,12924679,2834,1980,20,649,67,112,80.8,0.81
AST,2018-02-01,2.372,12766649,2987,2066,23.6,703,67,129,72.4,0.74
AST,2019-02-01,0.693,63535563,3024,2073,12.8,715,75,-115,-101,-1.03
AT,2017-02-01,12.2,1745261,1501,597,0,571,89,273,95.5,1.01
AT,2018-02-01,19.9,3010768,1725,742,0,625,78.6,354,150,1.6
AT,2019-02-01,23.049999,3328977,1977.7,883,0,656,80.5,397,166.5,1.81
ATH,2017-02-01,0.3805,451548,77.4,61.7,0,17.7,2.2,-3,-1.7,-0.02
ATH,2018-02-01,0.38799999999999996,700708,59,43.8,2.4,16.3,0.4,-2.4,-2.7,-0.03
ATH,2019-02-01,0.33899999999999997,381935,81.8,63.6,2.5,14.8,0.5,3.4,3,0.04
ATL,2017-02-01,22.1,35828868,6032,1854,0,1883,605,1775,1121,1.36
ATL,2018-02-01,25.379999,34538560,6207,1596,0,2100,600,2065,1172,1.43
ATL,2019-02-01,21.379999,28356998,7180,1849,0,3080,710,1519,818,1
AUTME,2017-02-01,20.4,99615,85.2,13.9,12,29.5,4,25.5,15,3.45
AUTME,2018-02-01,33.099998,158140,93,17,12.4,29,7.2,26.8,19.6,4.49
AUTME,2019-02-01,30.700001,48136,93.2,17,0,28.7,6.3,31,21.3,4.88
AZM,2017-02-01,14.7523,34049140,678,334,101.6,262,0,185,172.7,1.21
AZM,2018-02-01,16.688299,27568554,778,362.5,108,314,0.7,247,214.7,1.53
AZM,2019-02-01,12.6295,31470668,701,367.5,118.5,299,1.1,156,122,0.88
B,2017-02-01,1.31,849780,55.7,31.1,0.4,27.6,15,-14.4,-9,-0.13
B,2018-02-01,1.1,127003,56.3,32.8,0,26,14.8,7.7,8.4,0.08
B,2019-02-01,0.922,369729,48.2,25.9,0,23.6,12.1,33,16.3,0.23
BAMI,2017-02-01,2.356,549698402,3174,0,259,2624,1066,-2296,-1681,-2.77
BAMI,2018-02-01,3.1069999999999998,565727670,2866,0,1283,-425,923,1698,2616,1.73
BAMI,2019-02-01,2.1319999999999997,750842522,2622,0,1246,2631,569,-272,-59,-0.04
BAN,2017-02-01,3.2,1048980,135,80.9,45,39,1.4,15,10.3,0.18
BAN,2018-02-01,3.63,428589,135.5,81,45.7,38.5,1.1,15,10.6,0.19
BAN,2019-02-01,4.86,1110114,155.6,91.5,48.7,38,1,25.4,21,0.4
BCM,2017-02-01,0.135,1468499,114.4,47,0,84.7,2.2,-85,-86,-2
BCM,2018-02-01,0.302,1133884,92,41.7,0,63.8,1,-18.6,-18.7,-0.57
BCM,2019-02-01,0.306,11547839,80.8,27,0,55,1.6,-5.4,-5.5,-0.02
BDB,2017-02-01,2.17,736270,462.6,0,77.7,352.5,72.8,27.5,25.5,0.19
BDB,2018-02-01,2.13,1225029,460,0,71.7,319.7,52.5,64.6,43.7,0.33
BDB,2019-02-01,1.925,445202,419,0,128.7,312,51.9,43.3,35.2,0.27
BE,2017-02-01,0.37799999999999995,1813137,180.3,80.5,0,89,3.2,5.3,3.8,0.02
BE,2018-02-01,0.42100000000000004,2237328,177.9,81.6,0,84.6,2.9,5.7,3.5,0.02
BE,2019-02-01,0.304,3174257,167.8,75.1,0,87.6,3,-1.6,-9.2,-0.05
BEC,2017-02-01,8.625,372277,38.4,20.3,2.5,7.5,0,8.9,6.1,0.57
BEC,2018-02-01,11.54,239205,40.3,23.7,3,8,0,8.5,6.2,0.57
BEC,2019-02-01,11.86,67792,54.5,33.9,4,11,0,9.2,9.3,0.85
BIA,2017-02-01,0.32739,1502217,180,106.6,0,58,4.6,9,0,0.02
BIA,2018-02-01,0.44291,1872620,177,72.3,30,102,5.8,-5.2,-5.3,-0.04
BIA,2019-02-01,0.29614,3368706,126,57,20.8,95,4,-47,-48.5,-0.39
BMED,2017-02-01,6.165,47741400,3637,0,294.4,3205,128.4,449,393.5,0.53
BMED,2018-02-01,7.42,25301896,3383,0,288,2988,85.5,447,380,0.52
BMED,2019-02-01,6.13,23966158,2092,0,294,1681,81,421.5,256,0.35
BPE,2017-02-01,4.31,114950038,2158,0,286.7,1517,351,10.5,14.3,0.03
BPE,2018-02-01,4.868,105042497,2092,0,295,1519,286.6,199,176.4,0.37
BPE,2019-02-01,3.715,123762605,2271.5,0,316,1625,307,345.5,402,0.84
BPSO,2017-02-01,3.002,16953756,933,0,174,568,189,130,99,0.22
BPSO,2018-02-01,3.33,17108904,1001.5,0,160.5,560,141.7,233.7,159,0.26
BPSO,2019-02-01,2.574,14443216,932.6,0,159.8,557,116.4,142.7,110.8,0.24
BRE,2017-02-01,12.68,13263205,2286,1107,55,862.5,13.3,312,240.6,0.74
BRE,2018-02-01,11.5,21703694,2470,1153,0,985,12.5,335.5,263.4,0.81
BRE,2019-02-01,10.64,22352430,2646,1237.7,0,1080,16.2,325.4,238.3,0.73
BRI,2017-02-01,0.0538,5838738,24.2,14.7,0,11.7,0,-5.1,-6,-0.01
BRI,2018-02-01,0.0764,11358459,24.6,16.1,0,9.8,0.3,-10.1,-10.4,-0.01
BRI,2019-02-01,0.0642,15642150,29,17.9,1.8,11.4,1,-11.3,-8.5,0.02
BSRP,2017-02-01,6.31,96638,381.5,0,121.7,310.6,44,67.5,60.7,1.2
BSRP,2018-02-01,6.84,82302,374.8,0,102.7,273.3,32.1,4.8,0.6,0.01
BSRP,2019-02-01,7.28,177883,352,0,108.6,295,19.5,58.1,91.5,1.77
BZU,2017-02-01,23.379999,15448945,2669,1008,28,1326,96.6,281,145.9,0.71
BZU,2018-02-01,20.299999,19322471,2806,1058.4,0,1456,74.4,348.7,391.6,1.9
BZU,2019-02-01,17.200001,9104321,2873,1088,31.3,1459,69.3,465,382,1.86
CAI,2017-02-01,3.57,2946123,583.3,314.6,15.4,220,5,39.7,20.2,0.15
CAI,2018-02-01,3.565,5374446,1135,570.3,0,464.6,12.3,94.1,52,0.39
CAI,2019-02-01,4.0,5887554,1250,721.9,0,399,6.9,111.9,60.3,0.45
CARR,2017-02-01,1.37499,679971,593.7,451.6,1.9,123.6,13.1,-1.7,-9,-0.18
CARR,2018-02-01,3.425,5010967,606,453,1.3,116,10.5,21.3,13.7,0.22
CARR,2019-02-01,2.31,2267016,624,478.2,1,113,9,18.5,12.2,0.16
CASS,2017-02-01,5.92,8711653,4805,0,144.7,144.7,40,185,76.2,0.45
CASS,2018-02-01,9.79,17577759,5059,0,154.2,154.2,0,120.4,41.1,0.24
CASS,2019-02-01,8.19,8086218,5740,0,219.5,219.5,0,230.7,107,0.64
CED,2017-02-01,0.81,1034581,147,14.7,43.8,137,1.3,-64.7,-62.4,-0.51
CED,2018-02-01,1.35,247042,143.1,31.9,14.8,114.7,0.6,-39.6,-29.6,-0.24
CED,2019-02-01,1.14,187297,141.6,24,27.2,120.5,0.2,-12.5,-8.3,-0.07
CEM,2017-02-01,5.24,7533991,1036.5,421.4,14.5,526.6,11,118.6,67.3,0.42
CEM,2018-02-01,7.39,6264155,1144.5,436.2,15.5,577.4,19.5,126.7,71.5,0.45
CEM,2019-02-01,6.12,1881153,1203,460.3,16.5,600,14.3,184.6,127.2,0.8
CHL,2017-02-01,0.0321,165387808,4.1,4.8,2.5,3.5,0.5,-4.5,-4.2,0
CHL,2018-02-01,0.02,24177568,20.9,16.5,6,6.5,1.2,-2.3,-2.3,0
CHL,2019-02-01,0.0035,266834884,22,17.3,4,5.3,0.4,-3.3,-3.4,0
CIR,2017-02-01,1.229,9679977,2621,1596,0,866,43.7,108.6,33.7,0.05
CIR,2018-02-01,1.0979999999999999,7236163,2797,1724,0,904.5,43,129.3,-6,-0.01
CIR,2019-02-01,1.09,7531674,2817,1684,0,1025,42.3,52.9,12.9,0.02
CLE,2017-02-01,0.3618,3722760,72.7,58.9,0,29.3,2.4,-18.1,-16.9,-0.18
CLE,2018-02-01,0.40399999999999997,3366838,65.4,54.9,0,24.7,1.9,-16.3,-15.5,-0.18
CLE,2019-02-01,0.20199999999999999,10587174,72.7,53.9,0,26.9,2,-6,-8.4,-0.06
CLF,2017-02-01,1.263,654141,59.2,43.9,0,14.4,0.5,0.9,0.5,0.03
CLF,2018-02-01,1.465,645243,57.2,42.3,0,15,0.3,0.1,-0.1,-0.01
CLF,2019-02-01,1.395,113859,50.6,41.7,0,10.1,0.2,-1,-0.9,-0.06
CMB,2017-02-01,14.89,188098,123.1,56.2,0,41.6,0,24,16.9,1
CMB,2018-02-01,21.25,147359,133,61.2,0,45.5,0,26.6,22.7,1.36
CMB,2019-02-01,20.35,109117,144.6,66.4,0,49.2,0,28.4,22.7,1.36
CNHI,2017-02-01,8.76,81262758,24872,19539,2262,3122,1028,-9,-252,-0.18
CNHI,2018-02-01,11.145,69685164,27361,21621,2330,3287,942,680,295,0.22
CNHI,2019-02-01,9.524,62692575,29706,22958,2351,3412,812,1466,1068,0.79
COF,2017-02-01,0.4784100000000001,10024570,2621,1597,0,885.5,44.6,111.7,21.2,0.03
COF,2018-02-01,0.5319,34453320,2797,1725,0,905,44,129.7,-3,0
COF,2019-02-01,0.5129100000000001,8803046,2817,1685.5,0,1026,43,49.8,4.5,0.01
CPR,2017-02-01,4.775,36441006,1726,742,327.6,630,69,236.7,166.3,0.14
CPR,2018-02-01,5.9,58736555,1816,741,354.3,696,37.3,326.7,356.4,0.31
CPR,2019-02-01,8.385,42975080,1712,683.7,301,647,33.7,350.8,296.3,0.25
CSP,2017-02-01,1.13,139339,126.2,75.2,47.8,46.6,0.4,4.3,1.6,0.05
CSP,2018-02-01,1.02,424086,127.3,78,47.1,45.7,0.7,2.5,1,0.03
CSP,2019-02-01,0.74,217787,111.6,73.9,14.8,38.4,0.4,-10.5,-11.8,-0.35
DIA,2017-02-01,59.75,1639028,569.3,180.2,169.5,211.2,3.1,168.2,112.4,2.05
DIA,2018-02-01,67.449997,2066237,637.5,205.6,187.9,234.3,4.3,178.7,139.9,2.54
DIA,2019-02-01,86.25,1968040,669.2,213.4,200.3,245.9,4.6,204.4,158.1,2.85
DIB,2017-02-01,11.31,1421683,107.2,51.6,14.4,34,0.7,18.3,12.5,0.8
DIB,2018-02-01,9.32,701183,135.4,77,14.2,44.9,0.6,16.7,11.3,0.65
DIB,2019-02-01,5.31,579248,70.4,38.7,10.2,35,0.2,-2.9,9.2,-0.11
DLG,2017-02-01,24.5,1459099,1845,797,214,804,5.6,227.4,167.4,1.12
DLG,2018-02-01,23.18,3175528,1973,846.7,252,876.5,5.6,229,178.3,1.19
DLG,2019-02-01,23.1,1880389,2078,916,257.4,914,4.1,224,184.7,1.24
ELC,2017-02-01,1.5530000000000002,1984301,439.9,235.6,27.2,195.7,2.6,-0.1,-5.6,-0.09
ELC,2018-02-01,2.145,2289210,479.3,257.4,27.4,205.9,2.6,4.9,0.2,0
ELC,2019-02-01,2.03,6623831,472.4,253.3,29.1,209.1,2.3,4.5,-1,-0.02
EM,2017-02-01,1.121,4164044,391.9,210.3,15.4,154.5,2.7,26.5,17.6,0.11
EM,2018-02-01,1.288,5144917,422.2,220.4,18.6,171,2.3,23.1,16.2,0.1
EM,2019-02-01,1.31,1527146,452.8,238.6,19.8,179.5,2.1,34.9,25.4,0.15
ENEL,2017-02-01,4.052,745993651,69160,49432,0,9792,2678,5780,2570,0.26
ENEL,2018-02-01,4.779,788033230,72664,54021,0,8786,2439,7211,3779,0.37
ENEL,2019-02-01,5.32,528958555,74221,54598,0,9532,2488,8201,4789,0.47
ENI,2017-02-01,14.52,286924796,55762,51683,2994,2158,6232,892,-1464,-0.41
ENI,2018-02-01,13.714,321028813,66919,59944,2951,2265,5886,6844,3374,0.94
ENI,2019-02-01,15.165999999999999,198755270,75822,62610,3093,2431,4663,10107,4126,1.15
ERG,2017-02-01,10.98,3810300,1025.5,526.2,0,297.6,40.2,153.5,122.5,0.85
ERG,2018-02-01,16.99,4628455,1053.6,538,0,309,28.7,140.2,206.8,1.39
ERG,2019-02-01,17.49,4028574,1023.7,499.3,0,319,30.8,144,132.6,0.89
ETH,2017-02-01,1.3230000000000002,1979845,63.1,41.4,7.4,26.4,0.4,-5.1,-5.1,-0.15
ETH,2018-02-01,1.3459999999999999,2197425,61.3,40.1,6.6,23.9,0.4,-4.6,-4.7,-0.14
ETH,2019-02-01,3.77,8233193,80.1,51.5,7.3,22.5,0.4,5.6,5.7,0.17
FBK,2017-02-01,5.4,44242888,648.7,0,74,338.1,36.3,306.3,212,0.35
FBK,2018-02-01,10.12,53995933,666,0,77.4,347,17,316.3,214.1,0.35
FBK,2019-02-01,10.925,35054725,720.2,0,82,354.4,10.3,354.8,241.2,0.4
FKR,2017-02-01,0.97,8221936,249.6,163.6,10,33.5,41.3,19.4,-3.9,-0.01
FKR,2018-02-01,2.085,29039973,288.6,178,18.1,40,36.8,42.4,20.3,0.07
FKR,2019-02-01,2.89,12337345,336,185,10.1,41.1,43,77.3,44.2,0.15
FNM,2017-02-01,0.539,23976704,168.9,90.1,0,138,0.9,32.4,26.3,0.06
FNM,2018-02-01,0.669,12869447,175.7,87.3,0,138.5,0.7,41.5,35,0.08
FNM,2019-02-01,0.544,3387836,260.3,130,0,142.7,0,36.5,28.5,0.07
G,2017-02-01,13.52,204267723,80259,0,2594,0,1110,3157,2081,1.34
G,2018-02-01,15.44,125340881,82183,0,2575,0,1029,3686,2110,1.35
G,2019-02-01,15.695,104702594,67925,0,2438,0,1010,3450,2309,1.48
GSP,2017-02-01,2.992,113354,79.8,36.5,6.2,42.4,2,-7.3,-4.3,-0.1
GSP,2018-02-01,2.47,101043,79.4,36.2,4.6,36.3,1.9,1.1,0.8,0.02
GSP,2019-02-01,2.26,68528,85.4,41,5.1,41.4,1.5,-2.5,-1.9,-0.04
HER,2017-02-01,2.34,57038787,4512,2457,74.6,1562,154.5,340,207.3,0.14
HER,2018-02-01,2.802,49419246,5671,2937,77.8,2224,96.5,359.4,251.4,0.17
HER,2019-02-01,2.93,59649248,6190,3305,76.5,2357,96.6,418.4,282,0.19
IF,2017-02-01,29.5,2222572,360,0,73.3,204.7,57.3,720.5,688,12.94
IF,2018-02-01,35.259998,3034047,593.5,0,98.2,281.7,107,248.6,180.8,3.38
IF,2019-02-01,18.35,8395679,467.8,0,101.4,294.7,105,203,146.7,2.75
IG,2017-02-01,3.75,55303955,272.2,110.5,0,132.6,122.5,-90.5,-72.2,-0.09
IG,2018-02-01,4.417,45042939,1601,613.1,0,566.1,30.2,404.6,292.8,0.36
IG,2019-02-01,5.3260000000000005,30121052,1615,553,0,607.5,43.3,426.5,313.7,0.39
IKG,2017-02-01,0.2007,2538110,0.1,0,1,2.1,5.7,-5.1,-4.4,-0.01
IKG,2018-02-01,0.31,9774245,44.9,0,3,5.6,5.7,35.2,35.4,0.09
IKG,2019-02-01,0.341,3488770,33.2,0,1.1,5.5,5.6,19.8,20.9,0.04
INC,2017-02-01,0.0687,44093490,39.1,36.4,0,26.7,2.4,-33.8,-33.1,-0.22
INC,2018-02-01,0.0492,2951950,41.8,28.6,1.2,16.6,6.4,2.1,3.2,0.02
INC,2019-02-01,0.0226,5862190,31,12.7,0.6,10,2.9,18.1,16.6,0.05
IRE,2017-02-01,1.6230000000000002,29682930,3235,2005,17.8,736.8,135.7,303.4,174,0.14
IRE,2018-02-01,2.436,41268831,3687,2410,14.6,789,91.8,369.1,237.7,0.19
IRE,2019-02-01,2.186,31562550,4009,2616,14.6,791,124.9,389.5,242.1,0.19
ISG,2017-02-01,1.199,710600,149.7,101.1,0,41.6,1.8,6.9,2.7,0.07
ISG,2018-02-01,1.8659999999999999,1508889,149.6,106,0,39.8,1.6,2.3,0.2,0.01
ISG,2019-02-01,1.58,500012,152.8,110.4,0,37.4,1.6,3.2,0.4,0.01
ISP,2017-02-01,2.2,2321016740,27785,0,2503,21462,4250,3216,3111,0.18
ISP,2018-02-01,3.096,2302204349,26263,0,3875,22025,3871,7818,7316,0.44
ISP,2019-02-01,2.169,2785084884,29087,0,2376,21383,3786,5458,4050,0.24
ITM,2017-02-01,23.24,350850,385.5,212.5,72.2,186.6,21.8,5.1,57,1.3
ITM,2018-02-01,23.35,227036,517.3,199.4,0,160.1,31.3,121.5,115,2.63
ITM,2019-02-01,20.15,346556,472.5,293.1,0,128.8,34.4,18.5,27.7,0.66
ITW,2017-02-01,1.598,105667,54.8,43.4,0,10,0,0.2,-0.3,-0.04
ITW,2018-02-01,1.23,113665,40.9,40.1,2.2,5.3,0,-0.6,-1.6,-0.23
ITW,2019-02-01,0.6779999999999999,1992337,28.9,27.8,1.5,2.3,0,0.9,0.5,0.05
JUVE,2017-02-01,0.3589,35411466,278.4,212.1,10.5,151.3,5.1,11.6,4.1,0.01
JUVE,2018-02-01,0.722,87228287,326.7,288.8,12.1,198.2,5.8,58.4,42.6,0.04
JUVE,2019-02-01,1.206,418640127,314.9,256.9,14.6,238.3,6.4,-10,-19.2,-0.02
LDO,2017-02-01,12.97,58146077,12002,7391,0,3786,264,665,505,0.88
LDO,2018-02-01,8.85,96295286,11527,7164,0,3638,255,397,272,0.47
LDO,2019-02-01,8.866,45012056,12240,7780,0,3756,189,485,509,0.89
MARR,2017-02-01,19.15,970585,1543,1204,157.7,235.8,7.4,86.6,58.5,0.88
MARR,2018-02-01,21.860001,1382693,1623,1280,155,235.3,6.1,91.9,65.5,0.98
MARR,2019-02-01,20.700001,1279165,1667,1314,158.3,254.6,5.5,95.8,68.5,1.03
MB,2017-02-01,7.565,107034009,2377,0,468.4,1440.2,639,914,750.2,0.88
MB,2018-02-01,9.854,103601662,2278,0,385.3,1253,530.8,1096,864,1
MB,2019-02-01,8.822000000000001,77076129,2260,0,415.1,1288,482,1083,823,0.96
MLM,2017-02-01,0.42200000000000004,40436552,19.5,21.4,0,11.7,0,-13.9,-13.9,-0.03
MLM,2018-02-01,0.506,93361169,23,16.2,0,15,0,-8.5,-8.5,-0.02
MLM,2019-02-01,0.2865,22695218,28.4,17.6,0,15,0,-4.1,-4.1,-0.01
MN,2017-02-01,1.544,17506746,1263,931,0,272,16,42.3,22.5,0.09
MN,2018-02-01,1.916,14474643,1268,938.6,0,272.1,13.1,47.5,30.4,0.12
MN,2019-02-01,1.75,6897265,891.1,659,0,181.1,4.9,32.1,-177.1,-0.68
MON,2017-02-01,0.196,956174,159.1,18.2,21.5,140.7,3.8,-0.9,-2.5,-0.02
MON,2018-02-01,0.23800000000000002,19811549,157.1,17.7,23.4,138.2,3.6,-1,-3.7,-0.02
MON,2019-02-01,0.165,1097466,178.2,15.5,24.5,160.2,3.6,20.7,11.3,0.08
MONC,2017-02-01,18.02,16208993,1040,252.3,474.6,474.6,3.2,293.1,196.6,0.79
MONC,2018-02-01,28.700001,25075620,1194,276.2,553.2,576.6,1.9,335.7,249.7,0.99
MONC,2019-02-01,33.720001,22401455,1420,320.2,284.7,685.8,1.3,412.2,332.4,1.32
MS,2017-02-01,3.886,80483620,3667,1955,0,1751,49.3,-274.4,-294.5,-0.26
MS,2018-02-01,3.216,85265284,3631,1687,0,1615,40.8,296.5,90.5,0.08
MS,2019-02-01,2.798,45255740,3402,1838,0,1338,27.2,67,471.3,0.41
MTV,2017-02-01,3.86,2105368,28,1.1,1.8,16.4,0.2,12.7,8.6,0.31
MTV,2018-02-01,5.72,6700978,32.6,1.3,1.3,16.3,0.2,15.4,12.8,0.43
MTV,2019-02-01,1.3519999999999999,6867907,19.5,2.6,1.7,76.7,0.2,-54,-39.5,-1.17
PAN,2017-02-01,3.582,747689,390.4,245.3,0.4,116.8,1,16.5,11.2,0.25
PAN,2018-02-01,4.91,1291020,396.5,255.6,0.5,122.1,0.9,15.2,11.4,0.25
PAN,2019-02-01,1.518,1894527,382,266.1,0,121.3,0.8,-6.3,-4.1,-0.09
PIRC,2017-02-01,6.56,178240004,6058,2509,711,3031,348.6,264,135,0.65
PIRC,2018-02-01,7.287999999999999,45326401,5352,2464,691,2281,262.4,304.1,176.4,0.21
PIRC,2019-02-01,5.9,51910148,5194,2212,626.6,2431,109.4,501.8,431.6,0.43
PQ,2017-02-01,1.177,1054438,75.9,51.6,10.3,20.3,0.3,5.4,3.4,0.07
PQ,2018-02-01,1.74,881811,97.6,66.1,12.9,24.7,0.3,7,4.8,0.1
PQ,2019-02-01,1.96,1428631,147.5,110.2,0,41.8,0.3,37.1,34.5,0.69
PRL,2017-02-01,0.19089,6755682,14.5,8.8,0,8.2,0,-7.4,2.4,0.04
PRL,2018-02-01,0.18769,2702603,17.3,9,0,7.2,3.4,-2.3,-2.5,-0.04
PRL,2019-02-01,0.16399999999999998,18554668,20.4,10.2,0,7.9,1,1.1,0.8,0.01
PRO,2017-02-01,0.2008,9723985,54.1,0,14.5,51.9,1.1,3,2.2,0
PRO,2018-02-01,0.222,23111542,63.7,0,15.4,55.8,2.9,7.8,5.2,0.01
PRO,2019-02-01,0.1712,21395300,57.5,0,16.6,56,4,1.6,1.6,0
PRY,2017-02-01,23.212799,22428606,7567,4435,156,2725,52,368,246,1.11
PRY,2018-02-01,25.059401,22118741,7901,4855,135,2654,57,305,227,1.03
PRY,2019-02-01,17.950001,39131402,10158,6627,166,3220,61,198,130,0.53
PST,2017-02-01,6.06,57974551,28627,28692,0,2750,51,1056,622,0.48
PST,2018-02-01,7.062,100144933,33357,31251,0,946,71,1067,689,0.53
PST,2019-02-01,7.93,57530875,29486,27316,0,563,52,1490,1399,1.07
RACE,2017-02-01,61.5,10259929,3105,1580,295.2,909,30.4,567.4,399,2.11
RACE,2018-02-01,102.5,17325300,3417,1651,329,986,35.7,746,535.4,2.83
RACE,2019-02-01,113.150002,9742933,3420,1623,327.3,970.4,0,803,784.7,4.16
REC,2017-02-01,29.969999,10127451,1154,361,369.2,453,11.8,317.3,237.4,1.15
REC,2018-02-01,29.450001,19451275,1288,382.8,396.4,496.6,13.8,389.1,288.8,1.4
REC,2019-02-01,33.07,9010464,1352,395.6,401.2,511,22.6,418,312.4,1.53
REY,2017-02-01,31.424999,672096,780.7,396.7,288.5,308.9,1,97.4,67.5,1.8
REY,2018-02-01,49.200001,1485344,884.4,446.8,321.6,344.4,0.8,110.3,77.9,2.08
REY,2019-02-01,52.75,709760,1036,525,364.7,375.6,1.2,139.2,100,2.67
RN,2017-02-01,0.0313,127626470,4.7,27.5,0,2.7,13,-37.1,-65.5,-0.04
RN,2018-02-01,0.0325,85372377,3,14.3,0,11.9,12.9,-36.6,-23.9,-0.01
RN,2019-02-01,0.0201,57547438,1.3,9.8,0,7,12.9,-28.8,-25,-0.01
S24,2017-02-01,1.30987,393160,284.1,164.3,0,170.8,4,-79.3,-91.9,-2.92
S24,2018-02-01,0.7609999999999999,4691404,230,123,0,146.9,5.5,-46.7,7.5,0.12
S24,2019-02-01,0.506,20099081,211.3,99.4,0,111.3,3,-4.9,-6,-0.09
SAL,2017-02-01,3.17,26898396,5760,2666,775.7,2783,116.2,198.1,59.9,0.12
SAL,2018-02-01,2.496,49827243,5940,2833,809.4,2744,111.7,-67.6,-107,-0.22
SAL,2019-02-01,2.096,28234748,4864,2520,792,2201,77.7,-34.2,54.2,0.11
SFER,2017-02-01,26.98,15783782,1425,472.8,590.2,701.3,4.8,245.7,202,1.2
SFER,2018-02-01,23.139999,11790099,1381,494.8,594.3,710.9,3.2,173.3,118.6,0.7
SFER,2019-02-01,18.674999,8282913,1335,484.9,583.9,710.5,1.7,135.9,88.4,0.52
SFL,2017-02-01,4.0118800000000014,10032899,1253,537.3,415,673.7,7.6,-122.6,-142.1,-1.4
SFL,2018-02-01,2.77151,11984333,1047,527.4,319.6,519.5,7.7,-222.2,-251.6,-2.48
SFL,2019-02-01,0.7509999999999999,21157050,963,481.3,297,479,11.9,-23.2,-32.4,-0.3
SPM,2017-02-01,4.311,158635055,9892,7235,0,2466,102,-1635,-2087,-2.5
SPM,2018-02-01,3.37,209629439,9161,6720,0,2120,102,-106,-328,-0.33
SPM,2019-02-01,4.565,164564894,8526,6110,0,1986,95,-216,-472,-0.47
SRG,2017-02-01,3.76,119850398,2494,392,0,776,611,899,861,0.25
SRG,2018-02-01,3.681,268697903,2517,347,0,802,268,1226,897,0.26
SRG,2019-02-01,4.345,187411000,2586,316,0,883,230,1301,960,0.29
SRI,2017-02-01,3.8,127972,237.7,99.7,0.1,124.8,1.7,13.1,10.5,0.34
SRI,2018-02-01,5.62,518518,252.1,102.8,0.1,135.2,1.6,17.8,13.8,0.43
SRI,2019-02-01,4.0,656904,250.9,104.8,0.2,136.7,2,12.7,11.6,0.36
STM,2017-02-01,14.39,112215422,6973,4731,933,1971,153,153,121,0.19
STM,2018-02-01,18.825001,66316367,8347,5313,1001,1999,777,343,218,0.91
STM,2019-02-01,14.385,88941463,9664,6096,1109,2186,52,1760,1629,1.43
TEN,2017-02-01,15.53,49569715,4294,3166,1197,1187,22.3,34.4,55.3,0.05
TEN,2018-02-01,14.2,75636224,5289,3685,994.4,1273,27.1,427.7,544.7,0.46
TEN,2019-02-01,11.73,68796228,7659,5279,1190,1512,36.9,1103,876.1,0.74
TER,2017-02-01,0.8365,11773320,76.6,41.1,3.3,32.3,7.3,2.4,1.9,0.05
TER,2018-02-01,0.591,1622761,64,28.3,4.6,45,7.6,-45.8,-39.1,-0.9
TER,2019-02-01,0.41,1591269,24.5,7.7,0,20.4,4.6,-8.6,-9.9,-0.22
TES,2017-02-01,0.527,1406582,128.5,49,12.1,80.7,3.3,-6.9,-3.9,-0.37
TES,2018-02-01,0.52,1232055,175.6,78.5,10.7,90.8,3.5,-1.5,-1.4,-0.13
TES,2019-02-01,0.41600000000000004,3191560,194.6,88.3,11.3,102.8,3.4,0.3,0,0
TIS,2017-02-01,0.0479,128458219,196.9,129.1,0,93.5,7.8,-37.9,-45,-0.01
TIS,2018-02-01,0.0348,155911639,207.6,143.4,0,77,5.6,-42.2,0.8,-0.01
TIS,2019-02-01,0.0147,490096244,165.2,114.2,0,81.9,5,-45,83.2,0.02
TIT,2017-02-01,0.7655,1889948390,19025,7145,373,7658,1525,2799,1808,0.08
TIT,2018-02-01,0.74,2054305057,19828,7727,356,7706,1463,1777,1121,0.05
TIT,2019-02-01,0.5358,2505452901,18940,7514,286,7716,1288,-777,-1411,-0.07
TRN,2017-02-01,4.372,164638536,2046,262.4,2.2,784.4,85,933.2,633.1,0.32
TRN,2018-02-01,4.56,140606375,2190,340.5,0,805,81.2,988.6,688.3,0.34
TRN,2019-02-01,5.468,103245270,2319,395.4,0,812.6,85.9,1007.7,706.6,0.35
TXT,2017-02-01,8.405,371721,69.2,11.9,5.9,50.3,0,7,5.6,0.48
TXT,2018-02-01,10.16,773794,35.9,5.6,4,27.6,0,2.5,68.6,5.88
TXT,2019-02-01,9.61,252989,40,6.7,4,31.4,0.1,0.6,0.6,0.05
UBI,2017-02-01,2.81169,274302278,3222,0,456.1,2777.7,828.1,-1165,-830.1,-0.87
UBI,2018-02-01,3.969,245658467,3843,0,496.2,3006,661.2,796.2,690.6,0.65
UBI,2019-02-01,2.6210000000000004,253670301,4186,0,483.3,3201,346.8,390.7,425.6,0.34
UCG,2017-02-01,12.6477,650117150,18821,0,1468,16936,9502,-11245,-11790,-9.93
UCG,2018-02-01,17.445999,365450104,19671,0,1365,13686,8344,3700,5473,2.79
UCG,2019-02-01,11.966,417376754,20674,0,1215,11813,4894,3593,3892,1.71
UNI,2017-02-01,3.5860000000000003,80102805,16549,0,883,0,226.2,706.3,329.6,0.47
UNI,2018-02-01,4.112,66066624,13093,0,921,0,202.7,-179.1,-345.8,-0.49
UNI,2019-02-01,4.007,63189430,13848,0,596.7,0,170.4,1185,401.4,0.56
US,2017-02-01,2.0,190733180,13811,0,495.8,0,80.6,680.8,497.4,0.18
US,2018-02-01,1.9785,144288641,12890,0,497.8,0,83.8,760.2,504.2,0.18
US,2019-02-01,2.1959999999999997,84046709,13268,0,530.8,0,96,1203,905.1,0.33
